{
    "images": [
        {
            "src": "greek.jpg",
            "name": "Greek"
        },
        {
            "src": "nyc.jpg",
            "name": "NYC"
        },
        {
            "src": "snow.jpg",
            "name": "Snow"
        },
        {
            "src": "concept.jpg",
            "name": "Concept Art"
        },
        {
            "src": "concept1.jpg",
            "name": "Concept Art #1"
        },
        {
            "src": "concept2.jpg",
            "name": "Concept Art #2"
        },
        {
            "src": "concept3.jpg",
            "name": "Concept Art #3"
        },
        {
            "src": "forest.jpg",
            "name": "Forest"
        },
        {
            "src": "china.jpg",
            "name": "China"
        },
        {
            "src": "bar.jpg",
            "name": "Bar"
        },
        {
            "src": "outdoor.jpg",
            "name": "Outdoors"
        },
        {
            "src": "stars.png",
            "name": "Stars"
        },
        {
            "src": "stars1.jpg",
            "name": "Space"
        },
        {
            "src": "mars.png",
            "name": "Mars"
        },
        {
            "src": "outerspace.jpg",
            "name": "Outer Space"
        },
        {
            "src": "construction.jpg",
            "name": "Under Construction"
        },
        {
            "src": "europe.jpg",
            "name": "Europe Vibes"
        },
        {
            "src": "tuscany.jpg",
            "name": "Tuscany"
        },
        {
            "src": "bellagio.jpg",
            "name": "Bellagio"
        },
        {
            "src": "cave.jpg",
            "name": "Cave"
        },
        {
            "src": "porch_garden.jpg",
            "name": "Porch Garden"
        },
        {
            "src": "waterfall.jpg",
            "name": "Waterfall"
        }
    ]
}